{
  "name": "OKCore",
  "version": "1.0.29-0",
  "description": "Component library for the OurKin community platform.",
  "summary": "Component library for OurKin.",
  "homepage": "https://ourkin.com",
  "license": {
    "type": "MIT",
    "file": "LICENSE"
  },
  "authors": {
    "Steve Pascoe": "steve@ourkin.com"
  },
  "source": {
    "git": "https://bitbucket.org/airsickness/okcore.git",
    "tag": "v1.0.29-0"
  },
  "source_files": [
    "Pod/Classes/**/*.{h,m}",
    "ios/Pod/Classes/**/*.{h,m}"
  ],
  "resources": [
    "Pod/Assets/{OKCore.js,assets,assets/src/assets/fonts/*}",
    "ios/Pod/Assets/{OKCore.js,assets,assets/src/assets/fonts/*}"
  ],
  "platforms": {
    "ios": "12.1"
  },
  "frameworks": "UserNotifications",
  "dependencies": {
    "FBLazyVector": [
      "0.63.3"
    ],
    "FBReactNativeSpec": [
      "0.63.3"
    ],
    "RCTRequired": [
      "0.63.3"
    ],
    "RCTTypeSafety": [
      "0.63.3"
    ],
    "React": [
      "0.63.3"
    ],
    "React-Core": [
      "0.63.3"
    ],
    "React-CoreModules": [
      "0.63.3"
    ],
    "React-RCTActionSheet": [
      "0.63.3"
    ],
    "React-RCTAnimation": [
      "0.63.3"
    ],
    "React-RCTBlob": [
      "0.63.3"
    ],
    "React-RCTImage": [
      "0.63.3"
    ],
    "React-RCTLinking": [
      "0.63.3"
    ],
    "React-RCTNetwork": [
      "0.63.3"
    ],
    "React-RCTSettings": [
      "0.63.3"
    ],
    "React-RCTText": [
      "0.63.3"
    ],
    "React-RCTVibration": [
      "0.63.3"
    ],
    "React-cxxreact": [
      "0.63.3"
    ],
    "React-jsi": [
      "0.63.3"
    ],
    "React-jsiexecutor": [
      "0.63.3"
    ],
    "React-jsinspector": [
      "0.63.3"
    ],
    "React-callinvoker": [
      "0.63.3"
    ],
    "ReactCommon/turbomodule/core": [
      "0.63.3"
    ],
    "A0Auth0": [

    ],
    "lottie-react-native": [

    ],
    "react-native-image-picker": [

    ],
    "RNFastImage": [

    ],
    "BVLinearGradient": [

    ],
    "RNGestureHandler": [

    ],
    "react-native-video/VideoCaching": [

    ],
    "RNThumbnail": [

    ],
    "RNCAsyncStorage": [

    ],
    "react-native-webview": [

    ],
    "CodePush": [

    ],
    "RNImageCropPicker": [

    ],
    "react-native-get-random-values": [

    ],
    "react-native-safe-area-context": [

    ],
    "RNCMaskedView": [

    ],
    "RNCPushNotificationIOS": [

    ],
    "RNFBApp": [

    ],
    "RNFBAnalytics": [

    ],
    "RNFBMessaging": [

    ],
    "RNFBRemoteConfig": [

    ]
  },
  "pod_target_xcconfig": {
    "EXCLUDED_ARCHS[sdk=iphonesimulator*]": "arm64"
  },
  "user_target_xcconfig": {
    "EXCLUDED_ARCHS[sdk=iphonesimulator*]": "arm64"
  }
}
