{
  "name": "RNFBApp",
  "version": "7.1.4",
  "description": "A well tested, feature rich Firebase implementation for React Native, supporting iOS & Android. Individual module support for Admob, Analytics, Auth, Crash Reporting, Cloud Firestore, Database, Dynamic Links, Functions, Messaging (FCM), Remote Config, Storage and more.",
  "summary": "A well tested feature rich Firebase implementation for React Native, supporting iOS & Android.",
  "homepage": "http://invertase.io/oss/react-native-firebase",
  "license": "Apache-2.0",
  "authors": "Invertase Limited",
  "source": {
    "git": "https://github.com/invertase/react-native-firebase.git",
    "tag": "@react-native-firebase/app@7.1.4"
  },
  "social_media_url": "http://twitter.com/invertaseio",
  "platforms": {
    "ios": "9.0"
  },
  "source_files": "packages/app/ios/**/*.{h,m}",
  "dependencies": {
    "React": [

    ],
    "Firebase/CoreOnly": [
      "~> 6.25.0"
    ]
  },
  "static_framework": false
}
